R for Data Science
…
Working with many models requires many of the packages of the tidyverse (for data exploration, wrangling, and programming) and modelr to facilitate modelling.

library(modelr)
library(tidyverse)

25.2 gapminder

To motivate the power of many simple models, we’re going to look into the “gapminder” data. This data was popularised by Hans Rosling, a Swedish doctor and statistician. If you’ve never heard of him, stop reading this chapter right now and go watch one of his videos! He is a fantastic data presenter and illustrates how you can use data to present a compelling story. A good place to start is this short video filmed in conjunction with the BBC: https://www.youtube.com/watch?v=jbkSRLYSojo.

The gapminder data summarises the progression of countries over time, looking at statistics like life expectancy and GDP. The data is easy to access in R, thanks to Jenny Bryan who created the gapminder package:

library(gapminder)
gapminder
#> # A tibble: 1,704 × 6
#>       country continent  year lifeExp      pop gdpPercap
#>        <fctr>    <fctr> <int>   <dbl>    <int>     <dbl>
#> 1 Afghanistan      Asia  1952    28.8  8425333       779
#> 2 Afghanistan      Asia  1957    30.3  9240934       821
#> 3 Afghanistan      Asia  1962    32.0 10267083       853
#> 4 Afghanistan      Asia  1967    34.0 11537966       836
#> 5 Afghanistan      Asia  1972    36.1 13079460       740
#> 6 Afghanistan      Asia  1977    38.4 14880372       786
#> # ... with 1,698 more rows
…
How can we easily fit that model to every country?

25.2.1 Nested data

You could imagine copy and pasting that code multiple times; but you’ve already learned a better way! Extract out the common code with a function and repeat using a map function from purrr. This problem is structured a little differently to what you’ve seen before. Instead of repeating an action for each variable, we want to repeat an action for each country, a subset of rows. To do that, we need a new data structure: the nested data frame. To create a nested data frame we start with a grouped data frame, and “nest” it:

by_country <- gapminder %>% 
  group_by(country, continent) %>% 
  nest()

by_country
#> # A tibble: 142 × 3
#>       country continent              data
#>        <fctr>    <fctr>            <list>
#> 1 Afghanistan      Asia <tibble [12 × 4]>
#> 2     Albania    Europe <tibble [12 × 4]>
#> 3     Algeria    Africa <tibble [12 × 4]>
#> 4      Angola    Africa <tibble [12 × 4]>
#> 5   Argentina  Americas <tibble [12 × 4]>
#> 6   Australia   Oceania <tibble [12 × 4]>
#> # ... with 136 more rows

(I’m cheating a little by grouping on both continent and country. Given country, continent is fixed, so this doesn’t add any more groups, but it’s an easy way to carry an extra variable along for the ride.)

This creates an data frame that has one row per group (per country), and a rather unusual column: data. data is a list of data frames (or tibbles, to be precise). This seems like a crazy idea: we have a data frame with a column that is a list of other data frames! I’ll explain shortly why I think this is a good idea.

The data column is a little tricky to look at because it’s a moderately complicated list, and we’re still working on good tools to explore these objects. Unfortunately using str() is not recommended as it will often produce very long output. But if you pluck out a single element from the data column you’ll see that it contains all the data for that country (in this case, Afghanistan).

by_country$data[[1]]
#> # A tibble: 12 × 4
#>    year lifeExp      pop gdpPercap
#>   <int>   <dbl>    <int>     <dbl>
#> 1  1952    28.8  8425333       779
#> 2  1957    30.3  9240934       821
#> 3  1962    32.0 10267083       853
#> 4  1967    34.0 11537966       836
#> 5  1972    36.1 13079460       740
#> 6  1977    38.4 14880372       786
#> # ... with 6 more rows
…
And we want to apply it to every data frame. The data frames are in a list, so we can use purrr::map() to apply country_model to each element:

models <- map(by_country$data, country_model)

However, rather than leaving the list of models as a free-floating object, I think it’s better to store it as a column in the by_country data frame. Storing related objects in columns is a key part of the value of data frames, and why I think list-columns are such a good idea. In the course of working with these countries, we are going to have lots of lists where we have one element per country. So why not store them all together in one data frame?

In other words, instead of creating a new object in the global environment, we’re going to create a new variable in the by_country data frame. That’s a job for dplyr::mutate():

by_country <- by_country %>% 
  mutate(model = map(data, country_model))
by_country
#> # A tibble: 142 × 4
#>       country continent              data    model
#>        <fctr>    <fctr>            <list>   <list>
#> 1 Afghanistan      Asia <tibble [12 × 4]> <S3: lm>
#> 2     Albania    Europe <tibble [12 × 4]> <S3: lm>
#> 3     Algeria    Africa <tibble [12 × 4]> <S3: lm>
#> 4      Angola    Africa <tibble [12 × 4]> <S3: lm>
#> 5   Argentina  Americas <tibble [12 × 4]> <S3: lm>
#> 6   Australia   Oceania <tibble [12 × 4]> <S3: lm>
#> # ... with 136 more rows

This has a big advantage: because all the related objects are stored together, you don’t need to manually keep them in sync when you filter or arrange. The semantics of the data frame takes care of that for you:

by_country %>% 
  filter(continent == "Europe")
#> # A tibble: 30 × 4
#>                  country continent              data    model
#>                   <fctr>    <fctr>            <list>   <list>
#> 1                Albania    Europe <tibble [12 × 4]> <S3: lm>
#> 2                Austria    Europe <tibble [12 × 4]> <S3: lm>
#> 3                Belgium    Europe <tibble [12 × 4]> <S3: lm>
#> 4 Bosnia and Herzegovina    Europe <tibble [12 × 4]> <S3: lm>
#> 5               Bulgaria    Europe <tibble [12 × 4]> <S3: lm>
#> 6                Croatia    Europe <tibble [12 × 4]> <S3: lm>
#> # ... with 24 more rows
by_country %>% 
  arrange(continent, country)
#> # A tibble: 142 × 4
#>        country continent              data    model
#>         <fctr>    <fctr>            <list>   <list>
#> 1      Algeria    Africa <tibble [12 × 4]> <S3: lm>
#> 2       Angola    Africa <tibble [12 × 4]> <S3: lm>
#> 3        Benin    Africa <tibble [12 × 4]> <S3: lm>
#> 4     Botswana    Africa <tibble [12 × 4]> <S3: lm>
#> 5 Burkina Faso    Africa <tibble [12 × 4]> <S3: lm>
#> 6      Burundi    Africa <tibble [12 × 4]> <S3: lm>
#> # ... with 136 more rows

If your list of data frames and list of models were separate objects, you have to remember that whenever you re-order or subset one vector, you need to re-order or subset all the others in order to keep them in sync. If you forget, your code will continue to work, but it will give the wrong answer!

25.2.3 Unnesting

Previously we computed the residuals of a single model with a single dataset. Now we have 142 data frames and 142 models. To compute the residuals, we need to call add_residuals() with each model-data pair:

by_country <- by_country %>% 
  mutate(
    resids = map2(data, model, add_residuals)
  )
by_country
#> # A tibble: 142 × 5
#>       country continent              data    model            resids
#>        <fctr>    <fctr>            <list>   <list>            <list>
#> 1 Afghanistan      Asia <tibble [12 × 4]> <S3: lm> <tibble [12 × 5]>
#> 2     Albania    Europe <tibble [12 × 4]> <S3: lm> <tibble [12 × 5]>
#> 3     Algeria    Africa <tibble [12 × 4]> <S3: lm> <tibble [12 × 5]>
#> 4      Angola    Africa <tibble [12 × 4]> <S3: lm> <tibble [12 × 5]>
#> 5   Argentina  Americas <tibble [12 × 4]> <S3: lm> <tibble [12 × 5]>
#> 6   Australia   Oceania <tibble [12 × 4]> <S3: lm> <tibble [12 × 5]>
#> # ... with 136 more rows

But how you can plot a list of data frames? Instead of struggling to answer that question, let’s turn the list of data frames back into a regular data frame. Previously we used nest() to turn a regular data frame into an nested data frame, and now we do the opposite with unnest():

resids <- unnest(by_country, resids)
resids
#> # A tibble: 1,704 × 7
#>       country continent  year lifeExp      pop gdpPercap   resid
#>        <fctr>    <fctr> <int>   <dbl>    <int>     <dbl>   <dbl>
#> 1 Afghanistan      Asia  1952    28.8  8425333       779 -1.1063
#> 2 Afghanistan      Asia  1957    30.3  9240934       821 -0.9519
#> 3 Afghanistan      Asia  1962    32.0 10267083       853 -0.6636
#> 4 Afghanistan      Asia  1967    34.0 11537966       836 -0.0172
#> 5 Afghanistan      Asia  1972    36.1 13079460       740  0.6741
#> 6 Afghanistan      Asia  1977    38.4 14880372       786  1.6475
#> # ... with 1,698 more rows
…
Instead of looking at the residuals from the model, we could look at some general measurements of model quality. You learned how to compute some specific measures in the previous chapter. Here we’ll show a different approach using the broom package. The broom package provides a general set of functions to turn models into tidy data. Here we’ll use broom::glance() to extract some model quality metrics. If we apply it to a model, we get a data frame with a single row:

broom::glance(nz_mod)
#>   r.squared adj.r.squared sigma statistic  p.value df logLik  AIC  BIC
#> 1     0.954         0.949 0.804       205 5.41e-08  2  -13.3 32.6 34.1
#>   deviance df.residual
#> 1     6.47          10

We can use mutate() and unnest() to create a data frame with a row for each country:

by_country %>% 
  mutate(glance = map(model, broom::glance)) %>% 
  unnest(glance)
#> # A tibble: 142 × 16
#>       country continent              data    model            resids
#>        <fctr>    <fctr>            <list>   <list>            <list>
#> 1 Afghanistan      Asia <tibble [12 × 4]> <S3: lm> <tibble [12 × 5]>
#> 2     Albania    Europe <tibble [12 × 4]> <S3: lm> <tibble [12 × 5]>
#> 3     Algeria    Africa <tibble [12 × 4]> <S3: lm> <tibble [12 × 5]>
#> 4      Angola    Africa <tibble [12 × 4]> <S3: lm> <tibble [12 × 5]>
#> 5   Argentina  Americas <tibble [12 × 4]> <S3: lm> <tibble [12 × 5]>
#> 6   Australia   Oceania <tibble [12 × 4]> <S3: lm> <tibble [12 × 5]>
#> # ... with 136 more rows, and 11 more variables: r.squared <dbl>,
#> #   adj.r.squared <dbl>, sigma <dbl>, statistic <dbl>, p.value <dbl>,
#> #   df <int>, logLik <dbl>, AIC <dbl>, BIC <dbl>, deviance <dbl>,
#> #   df.residual <int>

This isn’t quite the output we want, because it still includes all the list columns. This is default behaviour when unnest() works on single row data frames. To suppress these columns we use .drop = TRUE:

glance <- by_country %>% 
  mutate(glance = map(model, broom::glance)) %>% 
  unnest(glance, .drop = TRUE)
glance
#> # A tibble: 142 × 13
#>       country continent r.squared adj.r.squared sigma statistic  p.value
#>        <fctr>    <fctr>     <dbl>         <dbl> <dbl>     <dbl>    <dbl>
#> 1 Afghanistan      Asia     0.948         0.942 1.223     181.2 9.84e-08
#> 2     Albania    Europe     0.911         0.902 1.983     101.8 1.46e-06
#> 3     Algeria    Africa     0.985         0.984 1.323     661.9 1.81e-10
#> 4      Angola    Africa     0.888         0.877 1.407      79.1 4.59e-06
#> 5   Argentina  Americas     0.996         0.995 0.292    2246.4 4.22e-13
#> 6   Australia   Oceania     0.980         0.978 0.621     481.3 8.67e-10
#> # ... with 136 more rows, and 6 more variables: df <int>, logLik <dbl>,
#> #   AIC <dbl>, BIC <dbl>, deviance <dbl>, df.residual <int>

(Pay attention to the variables that aren’t printed: there’s a lot of useful stuff there.)

With this data frame in hand, we can start to look for models that don’t fit well:

glance %>% 
  arrange(r.squared)
#> # A tibble: 142 × 13
#>     country continent r.squared adj.r.squared sigma statistic p.value
#>      <fctr>    <fctr>     <dbl>         <dbl> <dbl>     <dbl>   <dbl>
#> 1    Rwanda    Africa    0.0172      -0.08112  6.56     0.175   0.685
#> 2  Botswana    Africa    0.0340      -0.06257  6.11     0.352   0.566
#> 3  Zimbabwe    Africa    0.0562      -0.03814  7.21     0.596   0.458
#> 4    Zambia    Africa    0.0598      -0.03418  4.53     0.636   0.444
#> 5 Swaziland    Africa    0.0682      -0.02497  6.64     0.732   0.412
#> 6   Lesotho    Africa    0.0849      -0.00666  5.93     0.927   0.358
#> # ... with 136 more rows, and 6 more variables: df <int>, logLik <dbl>,
#> #   AIC <dbl>, BIC <dbl>, deviance <dbl>, df.residual <int>
…
Alternatively, you might create them from a named list, using tibble::enframe().

Generally, when creating list-columns, you should make sure they’re homogeneous: each element should contain the same type of thing. There are no checks to make sure this is true, but if you use purrr and remember what you’ve learned about type-stable functions, you should find it happens naturally.

25.4.1 With nesting

nest() creates a nested data frame, which is a data frame with a list-column of data frames. In a nested data frame each row is a meta-observation: the other columns give variables that define the observation (like country and continent above), and the list-column of data frames gives the individual observations that make up the meta-observation.

There are two ways to use nest(). So far you’ve seen how to use it with a grouped data frame. When applied to a grouped data frame, nest() keeps the grouping columns as is, and bundles everything else into the list-column:

gapminder %>% 
  group_by(country, continent) %>% 
  nest()
#> # A tibble: 142 × 3
#>       country continent              data
#>        <fctr>    <fctr>            <list>
#> 1 Afghanistan      Asia <tibble [12 × 4]>
#> 2     Albania    Europe <tibble [12 × 4]>
#> 3     Algeria    Africa <tibble [12 × 4]>
#> 4      Angola    Africa <tibble [12 × 4]>
#> 5   Argentina  Americas <tibble [12 × 4]>
#> 6   Australia   Oceania <tibble [12 × 4]>
#> # ... with 136 more rows

You can also use it on an ungrouped data frame, specifying which columns you want to nest:

gapminder %>% 
  nest(year:gdpPercap)
#> # A tibble: 142 × 3
#>       country continent              data
#>        <fctr>    <fctr>            <list>
#> 1 Afghanistan      Asia <tibble [12 × 4]>
#> 2     Albania    Europe <tibble [12 × 4]>
#> 3     Algeria    Africa <tibble [12 × 4]>
#> 4      Angola    Africa <tibble [12 × 4]>
#> 5   Argentina  Americas <tibble [12 × 4]>
#> 6   Australia   Oceania <tibble [12 × 4]>
#> # ... with 136 more rows
…
df %>% 
  mutate(x2 = stringr::str_split(x1, ","))
#> # A tibble: 2 × 2
#>        x1        x2
#>     <chr>    <list>
#> 1   a,b,c <chr [3]>
#> 2 d,e,f,g <chr [4]>

unnest() knows how to handle these lists of vectors:

df %>% 
  mutate(x2 = stringr::str_split(x1, ",")) %>% 
  unnest()
#> # A tibble: 7 × 2
#>        x1    x2
#>     <chr> <chr>
#> 1   a,b,c     a
#> 2   a,b,c     b
#> 3   a,b,c     c
#> 4 d,e,f,g     d
#> 5 d,e,f,g     e
#> 6 d,e,f,g     f
#> # ... with 1 more rows
…
To make useful results with unnest, you’ll also need to capture the probabilities:

probs <- c(0.01, 0.25, 0.5, 0.75, 0.99)
mtcars %>% 
  group_by(cyl) %>% 
  summarise(p = list(probs), q = list(quantile(mpg, probs))) %>% 
  unnest()
#> # A tibble: 15 × 3
#>     cyl     p     q
#>   <dbl> <dbl> <dbl>
#> 1     4  0.01  21.4
#> 2     4  0.25  22.8
#> 3     4  0.50  26.0
#> 4     4  0.75  30.4
#> 5     4  0.99  33.8
#> 6     6  0.01  17.8
#> # ... with 9 more rows
…
25.4.5 Exercises

List all the functions that you can think of that take a atomic vector and return a list.

Brainstorm useful summary functions that, like quantile(), return multiple values.

What’s missing in the following data frame? How does quantile() return that missing piece? Why isn’t that helpful here?

mtcars %>% 
  group_by(cyl) %>% 
  summarise(q = list(quantile(mpg))) %>% 
  unnest()
#> # A tibble: 15 × 2
#>     cyl     q
#>   <dbl> <dbl>
#> 1     4  21.4
#> 2     4  22.8
#> 3     4  26.0
#> 4     4  30.4
#> 5     4  33.9
#> 6     6  17.8
#> # ... with 9 more rows
…
